[gd_scene load_steps=4 format=2]

[ext_resource path="res://Logic/Marker/Units/Unit.gd" type="Script" id=1]
[ext_resource path="res://Logic/Marker/_Marker.tscn" type="PackedScene" id=2]
[ext_resource path="res://Images/UnitSegment.png" type="Texture" id=3]

[node name="Unit" instance=ExtResource( 2 )]
collision_layer = 65
script = ExtResource( 1 )

[node name="Sprite" parent="." index="1"]
texture = ExtResource( 3 )

[node name="Sprite" type="Sprite" parent="Sprite" index="0"]

[node name="AttackMarkers" type="Node2D" parent="." index="2"]

[node name="HealthMarkers" type="Node2D" parent="." index="3"]

[node name="MoveMarkers" type="Node2D" parent="." index="4"]
